<!-- Generated by IcoMoon.io -->
<svg version="1.1" xmlns="http://www.w3.org/2000/svg" width="1024" height="1024" viewBox="0 0 1024 1024">
<title></title>
<g id="icomoon-ignore">
</g>
<path d="M726.774 1017.72h-646.703l-75.545-221.822c-7.169-20.691-5.774-43.354 3.849-63.034 9.912-19.103 27.379-33.201 48.118-38.975 66.691-7.458 133.96-7.458 200.651 0 89.981 3.849 198.726 8.18 274.753 2.887-1.972-33.683 8.468-66.884 29.352-93.348 61.928-70.54 106.148-154.843 128.956-245.882 27.764-87.285 41.862-178.325 41.862-269.941-0.673-21.509 7.506-42.344 22.615-57.741 15.061-15.301 35.751-23.867 57.26-23.578h210.274v30.314c7.506 161.868-8.71 323.977-48.118 481.178-41.767 179.48-124.095 347.025-240.588 489.839l-6.736 10.105zM123.859 953.723h572.12c105.282-132.565 179.72-286.926 217.973-451.826 35.126-141.562 51.341-287.214 48.118-433.060h-149.165c-4.282-0.24-8.468 1.348-11.548 4.331-2.983 3.272-4.523 7.602-4.331 12.030 0 97.92-14.917 195.261-44.268 288.707-25.695 100.374-74.823 193.241-143.391 270.903-11.548 13.954-16.841 25.502-16.841 79.394v28.389l-28.389 3.369c-103.983 6.736-208.302 6.736-312.285 0-59.762-4.138-119.717-4.138-179.48 0-3.464 0.962-6.256 3.464-7.699 6.736-1.925 4.282-1.925 9.19 0 13.473l59.185 177.555z"></path>
</svg>
